{
  "name": "kings-and-queens-rider-app",
  "app_id": "",
  "type": "ionic1",
  "integrations": {
    "gulp": {},
    "cordova": {}
  },
  "watchPatterns": [
    "scss/**/*",
    "www/**/*",
    "!www/lib/**/*",
    "!www/**/*.map"
  ]
}
